{
    "portfolio": [
        {
            "title": "Statoil - Food truck",
            "image": "1417788166_2.png",
			"content": "<div class=\"col-md-6\"><img src=\"assets/img/portfolio/1417788166_2.png\" class=\"img-responsive\" alt=\"food truck\"></div><div class=\"col-md-6\"><img src=\"assets/img/portfolio/1417788166_3.png\" class=\"img-responsive\" alt=\"food truck\"></div>"
        },
        {
            "title": "Netia - piknik GigaKablówki",
            "image": "1418825752_2.png",
			"content": "test"
        },
        {
            "title": "Inmedio - talony zniżkowe",
            "image": "1418825614_2.png",
			"content": "test"
        },
        {
            "title": "Axa",
            "image": "1418826070_2.jpg",
			"content": "test"
        },
        {
            "title": "Seat",
            "image": "1399309446_.jpg",
			"content": "test"
        },
        {
            "title": "Orange",
            "image": "1418826348_.jpg",
			"content": "test"
        },
        {
            "title": "Nivea",
            "image": "1418829749_2.png",
			"content": "test"
        }
    ]
}
